<svg width="250" height="250" viewBox="0 0 250 250" fill="none" xmlns="http://www.w3.org/2000/svg">
<circle cx="125" cy="125" r="125" fill="#E7E7E7"/>
<path d="M119.682 219.703C113.736 218.931 107.378 216.224 103.114 212.65C102.358 212.016 101.631 211.499 101.498 211.502C101.366 211.505 100.333 212.432 99.2041 213.561C98.0749 214.691 96.9119 215.691 96.6196 215.784C96.0604 215.961 93.569 214.15 93.2582 213.341C93.0012 212.671 93.8483 211.217 95.6425 209.247C96.549 208.252 97.2907 207.368 97.2907 207.282C97.2907 207.196 96.5166 206.093 95.5704 204.831C93.7702 202.43 90.4248 197.039 89.935 195.751L89.6496 195L88.1082 196.309C85.8338 198.24 81.7796 200.92 81.1333 200.92C80.8091 200.92 80.1288 200.342 79.5287 199.556C78.474 198.174 78.3483 197.804 78.6595 196.993C78.8457 196.507 82.9041 192.976 85.5556 190.992L87.1888 189.77L85.4892 184.547C84.5545 181.675 83.5854 178.568 83.3356 177.642L82.8816 175.96L81.3453 176.574C77.4409 178.134 73.9175 179.202 72.9498 179.119C71.9801 179.037 71.8784 178.926 71.3102 177.341C70.8628 176.094 70.7839 175.517 71.0084 175.138C71.3998 174.476 74.8926 172.751 78.6338 171.372C80.2498 170.776 81.5963 170.27 81.6262 170.247C81.656 170.225 81.4235 168.7 81.1094 166.859C80.7953 165.019 80.3336 161.851 80.0833 159.821C79.833 157.79 79.597 156.098 79.5589 156.06C79.5208 156.022 77.3932 156.256 74.8309 156.58C72.2685 156.905 69.4989 157.131 68.6761 157.083C66.996 156.985 66.6714 156.597 66.3256 154.276C66.1511 153.104 66.1976 152.99 67.0626 152.463C67.9048 151.951 71.5498 151.172 76.8625 150.369C77.989 150.198 78.9424 150.027 78.9811 149.988C79.0198 149.95 78.9699 146.533 78.8702 142.395L78.6889 134.872L73.5197 134.678C70.6766 134.571 67.8216 134.326 67.1752 134.134L66 133.784V131.879C66 130.054 66.0374 129.954 66.8814 129.538C67.5349 129.215 69.1858 129.073 73.2644 128.988L78.7659 128.874L78.9051 127.95C78.9816 127.442 79.1214 125.374 79.2158 123.354C79.3823 119.793 80.0978 112.27 80.4228 110.664C80.5671 109.951 80.487 109.859 79.6083 109.729C79.0723 109.65 76.596 109.304 74.1053 108.961C71.6146 108.618 69.1355 108.153 68.5963 107.928C67.6579 107.536 67.616 107.451 67.616 105.944C67.616 105.078 67.7921 104.128 68.0073 103.834C68.5873 103.041 70.6001 102.958 76.2638 103.497C81.784 104.022 81.5561 104.08 81.8782 102.059C82.5133 98.0739 84.852 89.807 86.864 84.4349C87.4551 82.8568 87.8283 81.4692 87.6934 81.3514C87.5585 81.2336 85.7187 80.0038 83.6049 78.6184C81.4911 77.233 79.5446 75.7682 79.2793 75.3633C78.8212 74.6642 78.834 74.5605 79.5326 73.3105C80.5979 71.4044 80.9288 71.195 82.2423 71.5955C82.8432 71.7787 84.9214 72.8477 86.8605 73.9711C90.0702 75.8305 90.4204 75.9692 90.7672 75.5181C90.9768 75.2455 91.998 73.6612 93.0365 71.9974C98.0517 63.9625 105.056 57.7989 112.017 55.2959C113.095 54.9081 113.422 54.6586 113.292 54.3214C113.197 54.0721 112.32 51.6866 111.345 49.0203L109.571 44.1724L104.897 40.5909C100.86 37.4967 100.034 36.9836 98.8307 36.8202C96.0655 36.4446 85.7817 34.3235 85.1894 34.0065C84.6472 33.7163 84.6037 33.5069 84.7777 32.0267C84.8847 31.1162 85.0835 30.26 85.2195 30.124C85.5821 29.7614 101.557 31.4022 102.397 31.8883C103.171 32.3367 113.082 39.7631 113.816 40.4454C114.614 41.1867 116.152 44.8032 118.15 50.6363L119.055 53.2806L124.712 53.2845L130.368 53.2885L131.78 49.3181C132.557 47.1344 133.581 44.3343 134.057 43.0955L134.922 40.8433L141.063 36.2779L147.205 31.7125L153.465 30.9835C163.062 29.8659 163.825 29.8148 164.19 30.2658C164.365 30.4811 164.599 31.3409 164.712 32.1764C164.886 33.4757 164.838 33.7368 164.377 33.9807C163.738 34.3193 156.588 35.829 152.241 36.5433L149.163 37.049L144.404 40.7198C141.011 43.3369 139.59 44.6123 139.452 45.163C139.346 45.5878 138.542 47.8684 137.666 50.2311C136.79 52.5937 136.074 54.6466 136.074 54.7932C136.074 54.9397 136.966 55.4407 138.057 55.9064C142.581 57.838 148.262 62.2891 151.898 66.7513C153.534 68.7583 156.319 72.8539 157.322 74.7287C158.307 76.5685 158.103 76.5743 161.461 74.6115C165.048 72.5147 167.434 71.3569 168.176 71.3528C168.485 71.3511 169.117 72.0117 169.745 72.9926L170.795 74.6353L170.108 75.3791C169.122 76.4468 166.899 78.0541 163.692 80.0185C162.157 80.9587 160.87 81.748 160.833 81.7723C160.797 81.7966 161.211 82.949 161.754 84.3331C163.546 88.8963 165.498 95.7074 166.495 100.878C166.776 102.332 167.098 103.627 167.212 103.754C167.325 103.882 170.006 103.762 173.171 103.487C177.07 103.149 179.329 103.074 180.183 103.255C181.347 103.502 181.46 103.61 181.687 104.697C181.822 105.344 181.893 106.265 181.846 106.744C181.77 107.527 181.592 107.666 180.079 108.125C179.153 108.406 176.113 108.922 173.321 109.272C170.53 109.622 168.221 109.928 168.191 109.953C168.161 109.977 168.317 111.383 168.538 113.077C168.759 114.77 169.089 118.337 169.271 121.004C169.454 123.67 169.669 126.532 169.75 127.364L169.897 128.877L175.829 128.987C182.953 129.12 183.474 129.272 183.617 131.266C183.773 133.444 183.555 133.833 181.983 134.185C181.215 134.356 178.173 134.585 175.224 134.693L169.862 134.888L169.861 139.184C169.86 141.547 169.776 144.935 169.674 146.712L169.489 149.944L174.009 150.622C178.872 151.351 182.128 152.06 182.716 152.52C182.936 152.692 183.084 153.5 183.084 154.527C183.084 156.031 182.993 156.307 182.36 156.722C181.719 157.142 181.191 157.158 177.733 156.866C172.725 156.443 170.14 156.12 169.495 155.837C169.063 155.647 168.98 155.768 168.975 156.597C168.972 157.139 168.768 158.641 168.522 159.934C168.277 161.226 167.952 163.365 167.8 164.686C167.648 166.008 167.393 167.66 167.231 168.359C167.07 169.058 166.935 169.718 166.931 169.827C166.928 169.936 167.42 170.184 168.026 170.379C168.632 170.575 169.26 170.834 169.421 170.956C169.583 171.078 170.178 171.275 170.744 171.394C171.309 171.513 172.697 172.042 173.829 172.57C174.96 173.098 176.15 173.609 176.473 173.707C177.332 173.965 178.678 175.303 178.664 175.885C178.658 176.161 178.36 176.982 178.003 177.709C177.472 178.791 177.192 179.047 176.464 179.119C175.657 179.198 171.239 177.823 167.301 176.268L165.769 175.662L165.449 176.906C164.567 180.339 163.552 183.722 162.62 186.332L161.587 189.225L162.272 189.705C163.797 190.772 168.806 194.902 169.735 195.858C171.222 197.389 171.247 197.79 169.959 199.483C168.962 200.793 168.738 200.942 167.99 200.794C167.099 200.617 164.893 199.127 161.489 196.4C160.357 195.495 159.346 194.753 159.24 194.752C159.135 194.751 158.913 195.139 158.747 195.615C158.276 196.966 155.591 201.393 153.514 204.244L151.627 206.834L153.495 208.945C155.697 211.433 156.347 212.347 156.347 212.958C156.347 213.205 155.676 213.985 154.856 214.69L153.366 215.974L152.34 215.425C151.775 215.123 150.472 214.007 149.445 212.944L147.576 211.012L145.632 212.571C138.422 218.353 129.072 220.923 119.682 219.703ZM132.989 218.14C136.558 217.206 141.631 214.751 144.413 212.612C147.895 209.934 147.35 209.946 150.009 212.492C151.291 213.719 152.596 214.805 152.911 214.905C153.321 215.035 153.782 214.787 154.541 214.027L155.6 212.968L155.084 212.012C154.8 211.487 153.702 210.099 152.643 208.928L150.718 206.799L152.501 204.433C154.393 201.922 156.588 198.343 157.944 195.558C158.396 194.629 158.938 193.869 159.148 193.869C159.358 193.869 160.226 194.462 161.076 195.187C163.503 197.26 167.534 200.039 168.112 200.039C168.401 200.039 169.056 199.51 169.567 198.864L170.498 197.689L168.784 195.984C167.842 195.047 165.641 193.179 163.895 191.834C161.497 189.989 160.767 189.272 160.915 188.911C161.584 187.281 163.281 182.018 164.142 178.903C164.697 176.894 165.272 175.13 165.419 174.983C165.578 174.823 165.904 174.832 166.231 175.004C167.558 175.704 174.808 178.249 175.738 178.342C176.701 178.437 176.806 178.36 177.401 177.121L178.036 175.799L177.107 175.003C176.596 174.565 176.059 174.202 175.913 174.195C175.767 174.189 174.833 173.798 173.837 173.328C172.841 172.857 171.44 172.321 170.724 172.136C170.007 171.951 168.727 171.478 167.879 171.085C166.116 170.27 166.05 170.021 166.783 166.985C167.017 166.015 167.21 164.6 167.213 163.84C167.216 163.08 167.351 162.155 167.515 161.784C167.678 161.412 167.91 159.787 168.029 158.171L168.246 155.233L169.274 155.251C169.84 155.261 172.021 155.503 174.122 155.789C177.946 156.31 181.737 156.537 181.997 156.261C182.073 156.18 182.227 155.436 182.338 154.608L182.541 153.102L181.563 152.761C181.026 152.573 178.008 152.02 174.857 151.532C171.705 151.043 169.036 150.552 168.925 150.441C168.814 150.329 168.832 146.873 168.967 142.761C169.101 138.648 169.153 135.133 169.082 134.948C168.793 134.195 169.939 133.999 175.591 133.837C178.823 133.745 181.765 133.581 182.128 133.472C182.696 133.303 182.789 133.074 182.789 131.852C182.789 130.452 182.771 130.424 181.688 130.15C181.082 129.997 178.074 129.784 175.003 129.677C171.933 129.569 169.334 129.392 169.227 129.282C169.12 129.173 168.887 126.77 168.709 123.942C168.53 121.114 168.183 117.015 167.937 114.834C167.691 112.652 167.462 110.555 167.427 110.172C167.393 109.79 167.563 109.376 167.805 109.251C168.048 109.127 170.626 108.744 173.534 108.4C176.443 108.057 179.325 107.621 179.938 107.432L181.054 107.088L180.967 105.599L180.88 104.11L177.003 104.15C174.871 104.173 171.788 104.346 170.151 104.537C166.717 104.936 166.482 104.845 166.183 102.991C165.489 98.6931 163.66 92.0246 161.429 85.6614C160.705 83.5946 160.184 81.7175 160.271 81.49C160.358 81.2625 160.866 80.8507 161.4 80.5749C163.109 79.6914 168.814 75.8654 169.389 75.2168C169.938 74.5987 169.934 74.5734 169.144 73.379C168.418 72.2822 168.256 72.1852 167.425 72.3513C166.921 72.4522 164.684 73.5903 162.455 74.8804C160.225 76.1705 158.291 77.2261 158.155 77.2261C158.02 77.2261 157.111 75.8709 156.136 74.2145C153.821 70.2819 151.128 66.6734 148.729 64.2893C144.646 60.2319 141.927 58.4075 136.441 56.0432C135.754 55.7472 135.192 55.3336 135.192 55.1241C135.192 54.9146 136.061 52.3648 137.123 49.4578C138.458 45.805 139.297 43.9351 139.841 43.4041C141.354 41.9268 149.324 36.0927 149.829 36.0927C150.381 36.0927 162.624 33.825 163.471 33.566C163.822 33.4588 163.984 33.1111 163.981 32.4737C163.973 30.6865 164.004 30.6935 158.367 31.2277C155.559 31.4939 151.916 31.89 150.273 32.108L147.283 32.5043L141.422 36.8693L135.56 41.2343L133.588 46.6698C132.503 49.6593 131.459 52.5595 131.269 53.1147L130.922 54.1241L124.757 54.0909L118.592 54.0576L117.48 51.0248C116.868 49.3567 115.823 46.4887 115.158 44.6514L113.948 41.3108L108.081 36.9354C104.854 34.529 101.932 32.4987 101.588 32.4237C100.626 32.2137 90.9927 31.1532 88.1423 30.9435L85.6046 30.7569L85.4718 32.0292C85.3987 32.7289 85.3615 33.3343 85.3891 33.3744C85.4807 33.5075 91.2031 34.6596 95.8371 35.4779L100.407 36.2849L105.403 40.1265C109.928 43.606 110.438 44.0885 110.806 45.2455C111.03 45.9481 111.912 48.4233 112.767 50.7461C113.622 53.0688 114.256 55.0754 114.176 55.2052C114.095 55.3351 113.536 55.6031 112.932 55.8009C109.523 56.9178 105.385 59.3812 101.926 62.353C98.5583 65.2464 93.6318 71.6367 91.713 75.6006C91.3584 76.333 90.9267 76.9323 90.7536 76.9323C90.5804 76.9323 88.8918 76.0105 87.0011 74.8838C81.7422 71.7502 81.273 71.6487 80.2729 73.4281L79.6003 74.625L80.2537 75.3205C80.9561 76.0682 85.9411 79.4661 87.5367 80.2848C88.0702 80.5585 88.5727 80.9545 88.6533 81.1647C88.734 81.3748 88.2807 82.8554 87.6461 84.4547C85.9939 88.6183 84.5282 93.601 83.3022 99.2218C82.7159 101.91 82.0867 104.254 81.904 104.43C81.6643 104.661 80.4283 104.646 77.4586 104.376C71.942 103.875 68.809 103.858 68.6451 104.33C68.575 104.532 68.48 105.21 68.434 105.837C68.3553 106.91 68.4125 106.998 69.4271 107.355C70.0193 107.563 72.7958 108.03 75.5971 108.392C78.3985 108.754 80.8392 109.195 81.021 109.371C81.2656 109.609 81.2121 110.8 80.8151 113.952C80.5201 116.295 80.1158 120.705 79.9168 123.751C79.6977 127.103 79.431 129.331 79.2412 129.394C79.0688 129.45 76.3495 129.621 73.1983 129.772C70.0472 129.923 67.2377 130.141 66.9549 130.257C66.1374 130.593 66.2383 132.921 67.09 133.377C67.4938 133.593 69.8546 133.777 73.3335 133.864C78.698 133.998 79.8489 134.196 79.5654 134.935C79.4974 135.112 79.5449 138.628 79.6709 142.747C79.8405 148.29 79.8118 150.322 79.5608 150.562C79.3741 150.74 77.5027 151.118 75.402 151.401C71.9744 151.863 67.4293 152.824 67.0954 153.158C67.0254 153.228 67.0601 153.955 67.1727 154.773L67.3773 156.261H69.3441C71.1924 156.261 76.9573 155.637 78.9441 155.222C80.1672 154.967 80.4257 155.39 80.6573 158.024C80.7639 159.236 81.1929 162.441 81.6106 165.148C82.0284 167.854 82.3025 170.244 82.2197 170.46C82.1369 170.676 81.2301 171.153 80.2046 171.521C76.9605 172.685 72.7815 174.561 72.1145 175.151C71.4799 175.714 71.4781 175.739 71.9818 177.082C72.467 178.376 72.5425 178.439 73.5064 178.35C74.5376 178.254 80.5836 176.21 82.1226 175.436C83.2896 174.85 83.5035 175.159 84.5083 178.884C84.966 180.581 85.9139 183.706 86.6147 185.828C87.3155 187.95 87.8888 189.749 87.8888 189.827C87.8888 189.904 86.4007 191.157 84.5819 192.611C80.405 195.95 78.9492 197.51 79.3572 198.21C80.1807 199.623 80.8306 200.104 81.6449 199.901C82.4258 199.707 85.4055 197.618 88.2234 195.289C88.973 194.669 89.6557 194.162 89.7406 194.162C89.8254 194.162 90.5874 195.451 91.4339 197.027C93.162 200.243 94.6564 202.554 96.7498 205.247C97.5321 206.254 98.1722 207.149 98.1722 207.236C98.1722 207.324 97.2467 208.466 96.1155 209.775C94.9843 211.084 94.0588 212.364 94.0588 212.62C94.0588 213.205 95.7951 215.023 96.3538 215.023C96.583 215.023 97.819 214.003 99.1004 212.756C100.804 211.098 101.533 210.565 101.812 210.772C102.022 210.929 103.106 211.75 104.223 212.598C108.063 215.517 113.173 217.766 118.05 218.685C121.784 219.389 129.26 219.116 132.989 218.14ZM121.677 214.532C117.15 214.285 112.62 213.53 111.761 212.879C111.259 212.498 111.299 211.648 111.84 211.199C112.196 210.903 112.899 210.898 115.292 211.173C122.153 211.962 127.065 211.925 135.698 211.019C137.503 210.83 137.53 210.838 137.84 211.654C138.281 212.812 137.833 213.155 135.19 213.684C132.952 214.131 125.821 214.774 124.189 214.675C123.696 214.645 122.566 214.581 121.677 214.532ZM132.107 213.554C134.919 213.244 137.544 212.699 137.538 212.428C137.536 212.32 137.419 212.05 137.278 211.828C137.065 211.491 136.541 211.482 134.124 211.771C127.673 212.544 122.261 212.5 113.818 211.608C112.125 211.429 111.981 211.459 111.981 211.987C111.981 212.428 112.305 212.641 113.377 212.904C117.941 214.025 125.465 214.286 132.107 213.554ZM117.123 203.857C109.943 203.345 102.121 202.206 100.749 201.471C100.135 201.143 100.07 200.075 100.618 199.325C100.992 198.814 101.211 198.812 106.127 199.28C119.998 200.6 132.335 200.662 142.789 199.462C146.034 199.089 148.587 198.919 148.733 199.066C148.875 199.207 149.075 199.748 149.179 200.268C149.353 201.136 149.286 201.247 148.362 201.634C144.217 203.366 127.211 204.576 117.123 203.857ZM138.546 202.848C145.228 202.07 148.712 201.285 148.703 200.56C148.689 199.422 148.398 199.401 142.511 200.096C137.5 200.688 135.454 200.769 125.643 200.764C117.112 200.759 113.37 200.638 109.778 200.251C107.192 199.972 104.156 199.711 103.03 199.671C101.24 199.607 100.97 199.666 100.873 200.143C100.811 200.443 100.873 200.797 101.009 200.928C101.654 201.552 109.967 202.759 117.123 203.269C121.995 203.617 133.969 203.381 138.546 202.848ZM107.645 192.62C106.948 191.876 106.277 190.397 105.077 186.964C104.625 185.671 104.229 184.579 104.197 184.536C104.165 184.494 102.102 184.198 99.6131 183.878C97.1238 183.558 94.4261 183.13 93.6181 182.927L92.1491 182.557V181.235V179.913L94.0588 179.822C95.1092 179.771 97.4807 179.868 99.3289 180.036C101.177 180.204 102.719 180.311 102.756 180.274C102.793 180.237 102.517 179.083 102.143 177.709C101.77 176.335 101.179 173.823 100.831 172.127C100.483 170.43 100.081 168.777 99.9388 168.454C99.796 168.131 99.5953 166.985 99.4926 165.908L99.3059 163.949L96.7558 163.763C93.1639 163.5 90.2501 163.056 89.3842 162.64C88.3229 162.129 87.8936 160.239 88.6641 159.468C89.1551 158.977 89.4168 158.947 90.9772 159.201C91.9449 159.358 94.0332 159.591 95.6179 159.719L98.499 159.952L98.3319 158.18C97.9527 154.159 97.8754 152.951 97.6891 148.137L97.4941 143.098L95.5561 142.908C90.2379 142.387 86.2078 141.777 85.6295 141.406C85.0936 141.061 85.0141 140.808 85.1536 139.886C85.2457 139.277 85.4284 138.661 85.5595 138.517C85.6992 138.364 88.2215 138.364 91.6484 138.517L97.4989 138.779L97.6879 133.931C97.7918 131.265 98.0729 127.365 98.3126 125.264C98.5523 123.163 98.7509 121.348 98.7541 121.23C98.7572 121.111 95.7519 120.979 92.0756 120.936L85.3915 120.857V119.409C85.3915 118.049 85.4447 117.947 86.2722 117.725C86.7567 117.596 89.1365 117.348 91.5608 117.175C99.8794 116.581 99.6412 116.617 99.6412 115.963C99.6412 114.991 101.636 106.024 102.603 102.652C103.1 100.92 103.463 99.4643 103.41 99.4174C103.357 99.3704 101.397 99.5172 99.0536 99.7435C96.7105 99.9699 94.0001 100.119 93.0305 100.076L91.2676 99.9963V98.6742V97.352L94.2057 96.7006C95.8217 96.3423 98.9312 95.8285 101.116 95.5587L105.088 95.0683L106.061 92.4932C106.596 91.077 107.361 89.6109 107.76 89.2353C108.439 88.5978 108.54 88.5818 109.279 88.9945C110.006 89.4001 110.093 89.6482 110.337 92.0003L110.602 94.5641L116.066 94.4057C119.071 94.3186 122.08 94.1899 122.751 94.1197C124.606 93.9257 137.634 94.4913 143.272 95.0106C148.281 95.472 154.082 96.3219 156.802 96.993C158.148 97.3252 158.263 97.4247 158.35 98.3261C158.542 100.324 157.723 100.467 150.389 99.7152C139.893 98.6401 137.42 98.5283 124.125 98.5278C116.665 98.5275 110.502 98.5934 110.43 98.6742C110.358 98.755 110.212 102.776 110.106 107.609L109.912 116.397L117.19 116.208C129.631 115.884 156.867 116.716 162.076 117.578L164.132 117.919V119.388V120.857H136.955H109.778L109.7 130.012L109.622 139.166L112.166 139.378C116.247 139.718 142.681 139.327 153.453 138.767C158.891 138.484 163.551 138.334 163.81 138.434C164.515 138.704 164.461 141.159 163.741 141.544C163.445 141.702 161.627 142.031 159.701 142.275C150.264 143.47 138.291 143.982 122.478 143.867L109.616 143.774L109.645 152.19L109.673 160.605L115.455 160.826C121.895 161.072 140.116 160.795 144.888 160.378C146.585 160.23 149.89 159.906 152.233 159.658C154.576 159.41 157.221 159.132 158.109 159.042C160.031 158.846 161.026 159.273 161.422 160.465C161.633 161.101 161.584 161.413 161.206 161.83C160.658 162.436 160.103 162.552 154.877 163.16C152.858 163.395 150.345 163.725 149.295 163.892C146.769 164.294 137.586 165.003 132.254 165.209C129.911 165.299 124.027 165.268 119.18 165.139C113.164 164.98 110.293 165.002 110.137 165.211C109.899 165.528 110.171 180.683 110.42 180.941C110.716 181.249 138.666 181.037 142.244 180.699C150.193 179.95 156.371 179.637 156.879 179.958C157.203 180.162 157.375 180.659 157.375 181.394C157.375 182.491 157.341 182.527 155.964 182.878C153.846 183.419 148.907 184.092 142.831 184.668C138.58 185.071 134.451 185.186 123.881 185.192L110.365 185.202L110.344 188.697C110.324 191.972 110.28 192.227 109.65 192.737C108.775 193.445 108.397 193.423 107.645 192.62ZM109.452 191.935C109.551 191.679 109.631 189.96 109.631 188.115V184.76H108.643C108.1 184.76 107.039 184.676 106.284 184.572L104.913 184.384L105.691 186.556C107.127 190.562 108.074 192.4 108.699 192.4C109.016 192.4 109.354 192.19 109.452 191.935ZM143.125 184.04C148.638 183.532 153.666 182.858 155.685 182.356C156.812 182.077 156.934 181.959 156.934 181.156V180.266L152.894 180.466C150.672 180.577 147.664 180.791 146.21 180.942C140.229 181.563 129.151 181.891 120.061 181.716C110.047 181.523 108.967 181.47 101.366 180.79C98.6792 180.55 95.6052 180.353 94.5352 180.353H92.5898V181.215C92.5898 181.784 92.7645 182.126 93.104 182.223C95.2048 182.822 101.557 183.63 108.309 184.158C110.571 184.335 113.017 184.529 113.744 184.588C117.253 184.876 138.333 184.483 143.125 184.04ZM109.337 172.905V164.87L106.325 164.682C104.669 164.579 102.534 164.406 101.581 164.299L99.8485 164.103L100.065 164.956C100.184 165.426 100.408 166.603 100.564 167.573C100.977 170.151 103.446 179.865 103.771 180.192C103.924 180.345 105.073 180.557 106.325 180.662C107.578 180.766 108.768 180.872 108.97 180.897C109.256 180.931 109.337 179.162 109.337 172.905ZM142.091 164.04C145.003 163.802 148.245 163.471 149.295 163.304C150.345 163.137 152.858 162.812 154.877 162.581C156.897 162.351 159.079 162.052 159.725 161.917C160.784 161.696 160.895 161.589 160.84 160.84C160.807 160.383 160.697 159.926 160.596 159.824C160.296 159.525 157.389 159.657 152.527 160.193C150.022 160.469 146.386 160.845 144.447 161.029C139.679 161.482 109.6 161.469 104.342 161.012C102.161 160.822 99.5825 160.601 98.6129 160.52C97.6433 160.439 95.3957 160.236 93.6181 160.068C91.8406 159.9 90.0598 159.735 89.6609 159.701C88.8638 159.634 88.5946 160.222 88.8878 161.39C89.1051 162.256 90.4763 162.614 95.1276 163.022C97.0445 163.19 100.353 163.528 102.479 163.775C110.987 164.76 131.596 164.898 142.091 164.04ZM108.878 152.221C108.765 147.575 108.657 143.758 108.637 143.739C108.564 143.667 98.3532 143.055 98.2934 143.119C98.2138 143.204 98.7036 153.784 98.947 157.24C99.0519 158.729 99.27 159.885 99.459 159.954C99.8451 160.094 105.616 160.568 107.668 160.627L109.085 160.668L108.878 152.221ZM142.684 143.038C152.321 142.534 162.696 141.564 163.453 141.095C163.585 141.014 163.692 140.493 163.692 139.937C163.692 138.943 163.671 138.926 162.436 138.926C161.745 138.926 157.217 139.152 152.373 139.427C141.691 140.035 108.971 140.134 100.963 139.584C98.2163 139.395 93.7023 139.152 90.9324 139.044L85.8961 138.847L85.6893 139.789C85.5755 140.307 85.555 140.804 85.6437 140.892C86.0779 141.326 94.7546 142.37 100.082 142.63C101.859 142.716 104.9 142.89 106.84 143.016C112.095 143.358 136.285 143.373 142.684 143.038ZM108.749 134.86C108.749 132.462 108.837 128.275 108.944 125.557L109.139 120.615L104.482 120.815C101.92 120.926 99.7686 121.072 99.7001 121.141C99.4645 121.376 98.7922 127.618 98.6231 131.14C98.53 133.079 98.3854 135.619 98.3018 136.784L98.1498 138.903L100.732 139.001C102.152 139.055 104.537 139.126 106.032 139.16L108.749 139.22V134.86ZM163.692 119.347C163.692 118.537 163.574 118.403 162.727 118.244C152.786 116.379 96.8623 116.376 86.5547 118.24C85.7497 118.386 85.6721 118.494 85.7703 119.335L85.8793 120.269H124.786H163.692V119.347ZM107.037 116.407L108.997 116.222L109.159 113.839C109.248 112.528 109.374 108.61 109.44 105.133L109.56 98.811L107.082 99.0037C105.719 99.1097 104.532 99.2675 104.445 99.3544C104.143 99.6573 102.054 107.663 101.289 111.455C100.865 113.556 100.45 115.572 100.368 115.936C100.221 116.58 100.279 116.597 102.647 116.595C103.983 116.594 105.959 116.509 107.037 116.407ZM157.816 98.6624C157.816 97.7512 157.908 97.8014 155.171 97.2249C139.742 93.9743 108.401 94.0432 93.8192 97.3597C91.7922 97.8208 91.7084 97.8739 91.7084 98.6977C91.7084 99.5368 91.7422 99.5556 93.2509 99.5554C94.0992 99.5552 96.2184 99.42 97.9602 99.2548C102.173 98.8553 103.395 98.7561 110.806 98.211C118.645 97.6345 136.146 97.8008 144.007 98.5264C155.447 99.5826 157.384 99.7403 157.595 99.633C157.716 99.5714 157.816 99.1346 157.816 98.6624ZM108.382 94.8587L109.631 94.8546L109.627 92.8714C109.622 90.3376 109.411 89.5661 108.723 89.5661C108.111 89.5661 107.578 90.4673 106.506 93.3159L105.788 95.223L106.461 95.0428C106.831 94.9437 107.695 94.8609 108.382 94.8587ZM108.948 69.6981C107.397 69.2217 104.342 66.5592 104.342 65.6842C104.342 65.4142 104.672 64.9775 105.075 64.7136C105.781 64.2505 105.845 64.2669 106.889 65.1842C108.936 66.9813 108.552 66.9427 124.422 66.9427C132.406 66.9427 139.357 66.859 139.868 66.7567C140.38 66.6545 141.451 65.9836 142.249 65.266C143.734 63.9309 144.408 63.8072 145.174 64.7294C146.035 65.767 142.935 68.9651 140.336 69.7207C138.073 70.3785 111.099 70.359 108.948 69.6981ZM140.298 69.1441C142.033 68.6397 143.803 67.308 144.481 65.9959C144.863 65.2564 144.875 65.0586 144.548 64.8516C143.964 64.4812 143.502 64.5391 143.323 65.0051C143.236 65.2323 142.528 65.8603 141.749 66.4007L140.334 67.3834L125.35 67.474C115.598 67.533 110.002 67.4582 109.324 67.2599C108.751 67.0923 107.738 66.4893 107.073 65.9199C105.849 64.8727 104.93 64.7793 104.93 65.7024C104.93 66.5091 107.466 68.6548 108.964 69.1152C111.071 69.763 138.083 69.7879 140.298 69.1441Z" fill="#6C6F6B"/>
<path fill-rule="evenodd" clip-rule="evenodd" d="M132.989 218.14C136.558 217.206 141.631 214.751 144.413 212.612C147.895 209.934 147.35 209.946 150.009 212.492C151.291 213.719 152.596 214.805 152.911 214.905C153.321 215.035 153.782 214.787 154.541 214.027L155.6 212.968L155.084 212.012C154.8 211.487 153.702 210.099 152.643 208.928L150.718 206.799L152.501 204.433C154.393 201.922 156.588 198.343 157.944 195.558C158.396 194.629 158.938 193.869 159.148 193.869C159.358 193.869 160.226 194.462 161.076 195.187C163.503 197.26 167.534 200.039 168.112 200.039C168.401 200.039 169.056 199.51 169.567 198.864L170.498 197.689L168.784 195.984C167.842 195.047 165.641 193.179 163.895 191.834C161.497 189.989 160.767 189.272 160.915 188.911C161.584 187.281 163.281 182.018 164.142 178.903C164.697 176.894 165.272 175.13 165.419 174.983C165.578 174.823 165.904 174.832 166.231 175.004C167.558 175.704 174.808 178.249 175.738 178.342C176.701 178.437 176.806 178.36 177.401 177.121L178.036 175.799L177.107 175.003C176.596 174.565 176.059 174.202 175.913 174.195C175.767 174.189 174.833 173.798 173.837 173.328C172.841 172.857 171.44 172.321 170.724 172.136C170.007 171.951 168.727 171.478 167.879 171.085C166.116 170.27 166.05 170.021 166.783 166.985C167.017 166.015 167.21 164.6 167.213 163.84C167.216 163.08 167.351 162.155 167.515 161.784C167.678 161.412 167.91 159.787 168.029 158.171L168.246 155.233L169.274 155.251C169.84 155.261 172.021 155.503 174.122 155.789C177.946 156.31 181.737 156.537 181.997 156.261C182.073 156.18 182.227 155.436 182.338 154.608L182.541 153.102L181.563 152.761C181.026 152.573 178.008 152.02 174.857 151.532C171.705 151.043 169.036 150.552 168.925 150.441C168.814 150.329 168.832 146.873 168.967 142.761C169.101 138.648 169.153 135.133 169.082 134.948C168.793 134.195 169.939 133.999 175.591 133.837C178.823 133.745 181.765 133.581 182.128 133.472C182.696 133.303 182.789 133.074 182.789 131.852C182.789 130.452 182.771 130.424 181.688 130.15C181.082 129.997 178.074 129.784 175.003 129.677C171.933 129.569 169.334 129.392 169.227 129.282C169.12 129.173 168.887 126.77 168.709 123.942C168.53 121.114 168.183 117.015 167.937 114.834C167.691 112.652 167.462 110.555 167.427 110.172C167.393 109.79 167.563 109.376 167.805 109.251C168.048 109.127 170.626 108.744 173.534 108.4C176.443 108.057 179.325 107.621 179.938 107.432L181.054 107.088L180.967 105.599L180.88 104.11L177.003 104.15C174.871 104.173 171.788 104.346 170.151 104.537C166.717 104.936 166.482 104.845 166.183 102.991C165.489 98.6931 163.66 92.0246 161.429 85.6614C160.705 83.5946 160.184 81.7175 160.271 81.49C160.358 81.2625 160.866 80.8507 161.4 80.5749C163.109 79.6914 168.814 75.8654 169.389 75.2168C169.938 74.5987 169.934 74.5734 169.144 73.379C168.418 72.2822 168.256 72.1852 167.425 72.3513C166.921 72.4522 164.684 73.5903 162.455 74.8804C160.225 76.1705 158.291 77.2261 158.155 77.2261C158.02 77.2261 157.111 75.8709 156.136 74.2145C153.821 70.2819 151.128 66.6734 148.729 64.2893C144.646 60.2319 141.927 58.4075 136.441 56.0432C135.754 55.7472 135.192 55.3336 135.192 55.1241C135.192 54.9146 136.061 52.3648 137.123 49.4578C138.458 45.805 139.297 43.9351 139.841 43.4041C141.354 41.9268 149.324 36.0927 149.829 36.0927C150.381 36.0927 162.624 33.825 163.471 33.566C163.822 33.4588 163.984 33.1111 163.981 32.4737C163.973 30.6865 164.004 30.6935 158.367 31.2277C155.559 31.4939 151.916 31.89 150.273 32.108L147.283 32.5043L141.422 36.8693L135.56 41.2343L133.588 46.6698C132.503 49.6593 131.459 52.5595 131.269 53.1147L130.922 54.1241L124.757 54.0909L118.592 54.0576L117.48 51.0248C116.868 49.3567 115.823 46.4887 115.158 44.6514L113.948 41.3108L108.081 36.9354C104.854 34.529 101.932 32.4987 101.588 32.4237C100.626 32.2137 90.9927 31.1532 88.1423 30.9435L85.6046 30.7569L85.4718 32.0292C85.3987 32.7289 85.3615 33.3343 85.3891 33.3744C85.4807 33.5075 91.2031 34.6596 95.8371 35.4779L100.407 36.2849L105.403 40.1265C109.928 43.606 110.438 44.0885 110.806 45.2455C111.03 45.9481 111.912 48.4233 112.767 50.7461C113.622 53.0688 114.256 55.0754 114.176 55.2052C114.095 55.3351 113.536 55.6031 112.932 55.8009C109.523 56.9178 105.385 59.3812 101.926 62.353C98.5583 65.2464 93.6318 71.6367 91.713 75.6006C91.3584 76.333 90.9267 76.9323 90.7536 76.9323C90.5804 76.9323 88.8918 76.0105 87.0011 74.8838C81.7422 71.7502 81.273 71.6487 80.2729 73.4281L79.6003 74.625L80.2537 75.3205C80.9561 76.0682 85.9411 79.4661 87.5367 80.2848C88.0702 80.5585 88.5727 80.9545 88.6533 81.1647C88.734 81.3748 88.2807 82.8554 87.6461 84.4547C85.9939 88.6183 84.5282 93.601 83.3022 99.2218C82.7159 101.91 82.0867 104.254 81.904 104.43C81.6643 104.661 80.4283 104.646 77.4586 104.376C71.942 103.875 68.809 103.858 68.6451 104.33C68.575 104.532 68.48 105.21 68.434 105.837C68.3553 106.91 68.4125 106.998 69.4271 107.355C70.0193 107.563 72.7958 108.03 75.5971 108.392C78.3985 108.754 80.8392 109.195 81.021 109.371C81.2656 109.609 81.2121 110.8 80.8151 113.952C80.5201 116.295 80.1158 120.705 79.9168 123.751C79.6977 127.103 79.431 129.331 79.2412 129.394C79.0688 129.45 76.3495 129.621 73.1983 129.772C70.0472 129.923 67.2377 130.141 66.9549 130.257C66.1374 130.593 66.2383 132.921 67.09 133.377C67.4938 133.593 69.8546 133.777 73.3335 133.864C78.698 133.998 79.8489 134.196 79.5654 134.935C79.4974 135.112 79.5449 138.628 79.6709 142.747C79.8405 148.29 79.8118 150.322 79.5608 150.562C79.3741 150.74 77.5027 151.118 75.402 151.401C71.9744 151.863 67.4293 152.824 67.0954 153.158C67.0254 153.228 67.0601 153.955 67.1727 154.773L67.3773 156.261H69.3441C71.1924 156.261 76.9573 155.637 78.9441 155.222C80.1672 154.967 80.4257 155.39 80.6573 158.024C80.7639 159.236 81.1929 162.441 81.6106 165.148C82.0284 167.854 82.3025 170.244 82.2197 170.46C82.1369 170.676 81.2301 171.153 80.2046 171.521C76.9605 172.685 72.7815 174.561 72.1145 175.151C71.4799 175.714 71.4781 175.739 71.9818 177.082C72.467 178.376 72.5425 178.439 73.5064 178.35C74.5376 178.254 80.5836 176.21 82.1226 175.436C83.2896 174.85 83.5035 175.159 84.5083 178.884C84.966 180.581 85.9139 183.706 86.6147 185.828C87.3155 187.95 87.8888 189.749 87.8888 189.827C87.8888 189.904 86.4007 191.157 84.5819 192.611C80.405 195.95 78.9492 197.51 79.3572 198.21C80.1807 199.623 80.8306 200.104 81.6449 199.901C82.4258 199.707 85.4055 197.618 88.2234 195.289C88.973 194.669 89.6557 194.162 89.7406 194.162C89.8254 194.162 90.5874 195.451 91.4339 197.027C93.162 200.243 94.6564 202.554 96.7498 205.247C97.5321 206.254 98.1722 207.149 98.1722 207.236C98.1722 207.324 97.2467 208.466 96.1155 209.775C94.9843 211.084 94.0588 212.364 94.0588 212.62C94.0588 213.205 95.7951 215.023 96.3538 215.023C96.583 215.023 97.819 214.003 99.1004 212.756C100.804 211.098 101.533 210.565 101.812 210.772C102.022 210.929 103.106 211.75 104.223 212.598C108.063 215.517 113.173 217.766 118.05 218.685C121.784 219.389 129.26 219.116 132.989 218.14ZM111.761 212.879C112.62 213.53 117.15 214.285 121.677 214.532C122.566 214.581 123.696 214.645 124.189 214.675C125.821 214.774 132.952 214.131 135.19 213.684C137.833 213.155 138.281 212.812 137.84 211.654C137.53 210.838 137.503 210.83 135.698 211.019C127.065 211.925 122.153 211.962 115.292 211.173C112.899 210.898 112.196 210.903 111.84 211.199C111.299 211.648 111.259 212.498 111.761 212.879ZM100.749 201.471C102.121 202.206 109.943 203.345 117.123 203.857C127.211 204.576 144.217 203.366 148.362 201.634C149.286 201.247 149.353 201.136 149.179 200.268C149.075 199.748 148.875 199.207 148.733 199.066C148.587 198.919 146.034 199.089 142.789 199.462C132.335 200.662 119.998 200.6 106.127 199.28C101.211 198.812 100.992 198.814 100.618 199.325C100.07 200.075 100.135 201.143 100.749 201.471ZM105.077 186.964C106.277 190.397 106.948 191.876 107.645 192.62C108.397 193.423 108.775 193.445 109.65 192.737C110.28 192.227 110.324 191.972 110.344 188.697L110.365 185.202L123.881 185.192C134.451 185.186 138.58 185.071 142.831 184.668C148.907 184.092 153.846 183.419 155.964 182.878C157.341 182.527 157.375 182.491 157.375 181.394C157.375 180.659 157.203 180.162 156.879 179.958C156.371 179.637 150.193 179.95 142.244 180.699C138.666 181.037 110.716 181.249 110.42 180.941C110.171 180.683 109.899 165.528 110.137 165.211C110.293 165.002 113.164 164.98 119.18 165.139C124.027 165.268 129.911 165.299 132.254 165.209C137.586 165.003 146.769 164.294 149.295 163.892C150.345 163.725 152.858 163.395 154.877 163.16C160.103 162.552 160.658 162.436 161.206 161.83C161.584 161.413 161.633 161.101 161.422 160.465C161.026 159.273 160.031 158.846 158.109 159.042C157.221 159.132 154.576 159.41 152.233 159.658C149.89 159.906 146.585 160.23 144.888 160.378C140.116 160.795 121.895 161.072 115.455 160.826L109.673 160.605L109.645 152.19L109.616 143.774L122.478 143.867C138.291 143.982 150.264 143.47 159.701 142.275C161.627 142.031 163.445 141.702 163.741 141.544C164.461 141.159 164.515 138.704 163.81 138.434C163.551 138.334 158.891 138.484 153.453 138.767C142.681 139.327 116.247 139.718 112.166 139.378L109.622 139.166L109.7 130.012L109.778 120.857H136.955H164.132V119.388V117.919L162.076 117.578C156.867 116.716 129.631 115.884 117.19 116.208L109.912 116.397L110.106 107.609C110.212 102.776 110.358 98.755 110.43 98.6742C110.502 98.5934 116.665 98.5275 124.125 98.5278C137.42 98.5283 139.893 98.6401 150.389 99.7152C157.723 100.467 158.542 100.324 158.35 98.3261C158.263 97.4247 158.148 97.3252 156.802 96.993C154.082 96.3219 148.281 95.472 143.272 95.0106C137.634 94.4913 124.606 93.9257 122.751 94.1197C122.08 94.1899 119.071 94.3186 116.066 94.4057L110.602 94.5641L110.337 92.0003C110.093 89.6482 110.006 89.4001 109.279 88.9945C108.54 88.5818 108.439 88.5978 107.76 89.2353C107.361 89.6109 106.596 91.077 106.061 92.4932L105.088 95.0683L101.116 95.5587C98.9312 95.8285 95.8217 96.3423 94.2057 96.7006L91.2676 97.352V98.6742V99.9963L93.0305 100.076C94.0001 100.119 96.7105 99.9699 99.0536 99.7435C101.397 99.5172 103.357 99.3704 103.41 99.4174C103.463 99.4643 103.1 100.92 102.603 102.652C101.636 106.024 99.6412 114.991 99.6412 115.963C99.6412 116.617 99.8794 116.581 91.5608 117.175C89.1365 117.348 86.7567 117.596 86.2722 117.725C85.4447 117.947 85.3915 118.049 85.3915 119.409V120.857L92.0756 120.936C95.7519 120.979 98.7572 121.111 98.7541 121.23C98.7509 121.348 98.5523 123.163 98.3126 125.264C98.0729 127.365 97.7918 131.265 97.6879 133.931L97.4989 138.779L91.6484 138.517C88.2215 138.364 85.6992 138.364 85.5595 138.517C85.4284 138.661 85.2457 139.277 85.1536 139.886C85.0141 140.808 85.0936 141.061 85.6295 141.406C86.2078 141.777 90.2379 142.387 95.5561 142.908L97.4941 143.098L97.6891 148.137C97.8754 152.951 97.9527 154.159 98.3319 158.18L98.499 159.952L95.6179 159.719C94.0332 159.591 91.9449 159.358 90.9772 159.201C89.4168 158.947 89.1551 158.977 88.6641 159.468C87.8936 160.239 88.3229 162.129 89.3842 162.64C90.2501 163.056 93.1639 163.5 96.7558 163.763L99.3059 163.949L99.4926 165.908C99.5953 166.985 99.796 168.131 99.9388 168.454C100.081 168.777 100.483 170.43 100.831 172.127C101.179 173.823 101.77 176.335 102.143 177.709C102.517 179.083 102.793 180.237 102.756 180.274C102.719 180.311 101.177 180.204 99.3289 180.036C97.4807 179.868 95.1092 179.771 94.0588 179.822L92.1491 179.913V181.235V182.557L93.6181 182.927C94.4261 183.13 97.1238 183.558 99.6131 183.878C102.102 184.198 104.165 184.494 104.197 184.536C104.229 184.579 104.625 185.671 105.077 186.964ZM104.342 65.6842C104.342 66.5592 107.397 69.2217 108.948 69.6981C111.099 70.359 138.073 70.3785 140.336 69.7207C142.935 68.9651 146.035 65.767 145.174 64.7294C144.408 63.8072 143.734 63.9309 142.249 65.266C141.451 65.9836 140.38 66.6545 139.868 66.7567C139.357 66.859 132.406 66.9427 124.422 66.9427C108.552 66.9427 108.936 66.9813 106.889 65.1842C105.845 64.2669 105.781 64.2505 105.075 64.7136C104.672 64.9775 104.342 65.4142 104.342 65.6842Z" fill="#6C6F6B"/>
<path d="M157.816 98.6624C157.816 97.7512 157.908 97.8014 155.171 97.2249C139.742 93.9743 108.401 94.0432 93.8192 97.3597C91.7922 97.8208 91.7084 97.8739 91.7084 98.6977C91.7084 99.5368 91.7422 99.5556 93.2509 99.5554C94.0992 99.5552 96.2184 99.42 97.9602 99.2548C102.173 98.8553 103.395 98.7561 110.806 98.211C118.645 97.6345 136.146 97.8008 144.007 98.5264C155.447 99.5826 157.384 99.7403 157.595 99.633C157.716 99.5714 157.816 99.1346 157.816 98.6624Z" fill="#A99E82"/>
<path d="M163.692 119.347C163.692 118.537 163.574 118.403 162.727 118.244C152.786 116.379 96.8623 116.376 86.5547 118.24C85.7497 118.386 85.6721 118.494 85.7703 119.335L85.8793 120.269H124.786H163.692V119.347Z" fill="#A99E82"/>
<path d="M142.684 143.038C152.321 142.534 162.696 141.564 163.453 141.095C163.585 141.014 163.692 140.493 163.692 139.937C163.692 138.943 163.671 138.926 162.436 138.926C161.745 138.926 157.217 139.152 152.373 139.427C141.691 140.035 108.971 140.134 100.963 139.584C98.2163 139.395 93.7023 139.152 90.9324 139.044L85.8961 138.847L85.6893 139.789C85.5755 140.307 85.555 140.804 85.6437 140.892C86.0779 141.326 94.7546 142.37 100.082 142.63C101.859 142.716 104.9 142.89 106.84 143.016C112.095 143.358 136.285 143.373 142.684 143.038Z" fill="#A99E82"/>
<path d="M140.298 69.1441C142.033 68.6397 143.803 67.308 144.481 65.9959C144.863 65.2564 144.875 65.0586 144.548 64.8516C143.964 64.4812 143.502 64.5391 143.323 65.0051C143.236 65.2323 142.528 65.8603 141.749 66.4007L140.334 67.3834L125.35 67.474C115.598 67.533 110.002 67.4582 109.324 67.2599C108.751 67.0923 107.738 66.4893 107.073 65.9199C105.849 64.8727 104.93 64.7793 104.93 65.7024C104.93 66.5091 107.466 68.6548 108.964 69.1152C111.071 69.763 138.083 69.7879 140.298 69.1441Z" fill="#A99E82"/>
<path d="M142.091 164.04C145.003 163.802 148.245 163.471 149.295 163.304C150.345 163.137 152.858 162.812 154.877 162.581C156.897 162.351 159.079 162.052 159.725 161.917C160.784 161.696 160.895 161.589 160.84 160.84C160.807 160.383 160.697 159.926 160.596 159.824C160.296 159.525 157.389 159.657 152.527 160.193C150.022 160.469 146.386 160.845 144.447 161.029C139.679 161.482 109.6 161.469 104.342 161.012C102.161 160.822 99.5825 160.601 98.6129 160.52C97.6433 160.439 95.3957 160.236 93.6181 160.068C91.8406 159.9 90.0598 159.735 89.6609 159.701C88.8638 159.634 88.5946 160.222 88.8878 161.39C89.1051 162.256 90.4763 162.614 95.1276 163.022C97.0445 163.19 100.353 163.528 102.479 163.775C110.987 164.76 131.596 164.898 142.091 164.04Z" fill="#A99E82"/>
<path d="M143.125 184.04C148.638 183.532 153.666 182.858 155.685 182.356C156.812 182.077 156.934 181.959 156.934 181.156V180.266L152.894 180.466C150.672 180.577 147.664 180.791 146.21 180.942C140.229 181.563 129.151 181.891 120.061 181.716C110.047 181.523 108.967 181.47 101.366 180.79C98.6792 180.55 95.6052 180.353 94.5352 180.353H92.5898V181.215C92.5898 181.784 92.7645 182.126 93.104 182.223C95.2048 182.822 101.557 183.63 108.309 184.158C110.571 184.335 113.017 184.529 113.744 184.588C117.253 184.876 138.333 184.483 143.125 184.04Z" fill="#A99E82"/>
<path d="M138.546 202.848C145.228 202.07 148.712 201.285 148.703 200.56C148.689 199.422 148.398 199.401 142.511 200.096C137.5 200.688 135.454 200.769 125.643 200.764C117.112 200.759 113.37 200.638 109.778 200.251C107.192 199.972 104.156 199.711 103.03 199.671C101.24 199.607 100.97 199.666 100.873 200.143C100.811 200.443 100.873 200.797 101.009 200.928C101.654 201.552 109.967 202.759 117.123 203.269C121.995 203.617 133.969 203.381 138.546 202.848Z" fill="#A99E82"/>
<path d="M132.107 213.554C134.919 213.244 137.544 212.699 137.538 212.428C137.536 212.32 137.419 212.05 137.278 211.828C137.065 211.491 136.541 211.482 134.124 211.771C127.673 212.544 122.261 212.5 113.818 211.608C112.125 211.429 111.981 211.459 111.981 211.987C111.981 212.428 112.305 212.641 113.377 212.904C117.941 214.025 125.465 214.286 132.107 213.554Z" fill="#A99E82"/>
</svg>
